1514080811,14212,14219.5
1514080813,14212.5,14219
1514080815,14206.5,14210.5
1514080820,14209,14218.5
1514080824,14218.5,14219
1514080839,14221,14221.5
1514080844,14246,14246.5
1514080849,14252.5,14270.5
1514080854,14253.5,14254
1514080859,14230,14240
1514080864,14220,14220.5
1514080869,14205.5,14212.5
1514080874,14175.5,14176
1514080879,14154.5,14162.5
1514080884,14150.5,14151
1514080889,14134,14140.5
1514080896,14150,14150.5
1514080904,14149.5,14150
1514080914,14177.5,14178
1514080919,14187.5,14188
1514080929,14178,14178.5
1514080934,14165,14165.5
1514080939,14148,14148.5
1514080944,14138,14138.5
1514080949,14137,14137.5
1514080959,14138,14138.5
1514080965,14140.5,14150
1514080969,14156.5,14157
1514080974,14159,14159.5
1514080989,14158.5,14159
1514080994,14150,14150.5
1514080999,14124,14124.5
1514081004,14119.5,14120
1514081009,14100,14100.5
1514081017,14095,14100
1514081019,14099.5,14110
1514081024,14118,14120
1514081030,14149,14149.5
1514081039,14131.5,14147
1514081045,14132,14146
1514081049,14100.5,14101
1514081055,14093,14099.5
1514081060,14080,14092.5
1514081064,14071.5,14080
1514081069,14061.5,14071.5
1514081078,14061,14062
1514081079,14050,14061.5
1514081085,14050,14050.5
1514081094,14041,14041.5
1514081099,14058.5,14059
1514081110,14059,14059.5
1514081114,14068,14077
1514081120,14073.5,14074
1514081124,14067.5,14071.5
1514081129,14097,14097.5
1514081136,14105,14107.5
1514081139,14137.5,14143.5
1514081144,14113,14130
1514081149,14105,14118.5
1514081154,14106,14106.5
1514081159,14105,14105.5
1514081174,14104,14104.5
1514081179,14075,14084
1514081184,14075,14075.5
1514081196,14064.5,14067
1514081199,14036.5,14037
1514081204,14049,14049.5
1514081209,14047.5,14048
1514081229,14077.5,14078.5
1514081234,14087,14087.5
1514081239,14090.5,14091
1514081249,14099.5,14100
1514081256,14090.5,14099.5
1514081260,14069.5,14070
1514081264,14061,14061.5
1514081269,14057,14057.5
1514081274,14040,14040.5
1514081294,14034,14034.5
1514081300,14029,14029.5
1514081304,14011,14012
1514081309,14008.5,14009
1514081316,14003,14007
1514081319,14005.5,14006
1514081329,14006,14006.5
1514081334,14000.5,14001
1514081339,14021,14021.5
1514081349,14005,14005.5
1514081354,14001.5,14005.5
1514081359,14005.5,14006
1514081364,14021,14021.5
1514081389,14036.5,14050
1514081394,14060,14063
1514081399,14066,14066.5
1514081405,14070,14074
1514081410,14073,14073.5
1514081414,14047.5,14053.5
1514081419,14040,14040.5
1514081424,14040.5,14051
1514081429,14065,14065.5
1514081439,14063,14065.5
1514081445,14042.5,14043.5
1514081450,14046.5,14047
1514081454,14047,14047.5
1514081459,14081,14081.5
1514081465,14099,14100
1514081469,14099.5,14100
1514081496,14086.5,14095
1514081499,14050,14057
1514081505,14050,14050.5
1514081511,14057,14100
1514081518,14099.5,14100
1514081570,14075.5,14080
1514081574,14077,14077.5
1514081579,14062.5,14063
1514081585,14047.5,14049.5
1514081590,14047.5,14048
1514081599,14041.5,14042
1514081604,14029,14029.5
1514081616,14016,14029
1514081619,13976.5,14010.5
1514081624,13976.5,13977
1514081629,13976.5,13993
1514081634,13990,13997.5
1514081639,13980,13997.5
1514081645,13997,13997.5
1514081664,14021.5,14022.5
1514081669,14028.5,14030.5
1514081678,14038.5,14039
1514081679,14046.5,14052
1514081685,14070.5,14072.5
1514081690,14078,14080
1514081694,14070.5,14071
1514081699,14060.5,14061
1514081710,14059.5,14060
1514081714,14043,14044.5
1514081719,14038.5,14039
1514081729,14030,14030.5
1514081739,14050,14050.5
1514081744,14031.5,14032
1514081749,14030,14032
1514081754,14059,14059.5
1514081760,14076,14076.5
1514081765,14085,14092
1514081769,14099.5,14100
1514081784,14057,14076
1514081789,14041.5,14046.5
1514081796,14030,14032.5
1514081800,14023,14024.5
1514081805,13995.5,14000
1514081810,13975.5,13990
1514081814,14019.5,14020
1514081819,14042.5,14067.5
1514081825,14051.5,14062.5
1514081829,14062.5,14063
1514081834,14063.5,14064
1514081844,14055,14055.5
1514081849,14023,14029
1514081856,14023,14023.5
1514081864,14023.5,14029
1514081870,14056.5,14057
1514081874,14057,14057.5
1514081879,14058,14058.5
1514081899,14038.5,14039
1514081909,14044.5,14045
1514081915,14053.5,14054.5
1514081919,14064,14077
1514081924,14070.5,14071
1514081929,14072.5,14078.5
1514081934,14025,14025.5
1514081944,14044.5,14049
1514081949,14045,14045.5
1514081964,14042,14042.5
1514081969,14021.5,14022
1514081978,13995.5,14000.5
1514081979,14001.5,14011
1514081985,14018,14024
1514081989,14040.5,14045
1514081994,14054,14055
1514081999,14074,14078
1514082005,14079,14098
1514082009,14084,14100
1514082015,14099.5,14100
1514082038,14109,14129.5
1514082039,14123,14140
1514082044,14160,14172
1514082049,14169,14173
1514082054,14160,14175.5
1514082059,14172.5,14173
1514082065,14200,14206
1514082069,14200,14200.5
1514082074,14201,14206.5
1514082079,14210.5,14238
1514082085,14238,14238.5
1514082090,14230.5,14236
1514082095,14200,14213
1514082099,14157,14181
1514082105,14151.5,14157.5
1514082110,14142,14142.5
1514082114,14143,14143.5
1514082119,14160,14179.5
1514082124,14165,14165.5
1514082129,14178.5,14179
1514082144,14175.5,14176
1514082149,14175,14175.5
1514082155,14151.5,14152
1514082169,14123,14123.5
1514082185,14112.5,14113
1514082189,14100,14100.5
1514082194,14138,14142
1514082200,14151,14175
1514082205,14174.5,14175
1514082209,14162.5,14163
1514082216,14156,14156.5
1514082219,14151,14151.5
1514082229,14150,14150.5
1514082239,14143.5,14144
1514082254,14140.5,14141
1514082259,14120,14121.5
1514082264,14120,14120.5
1514082269,14100,14100.5
1514082284,14097.5,14098
1514082289,14067,14072.5
1514082295,14035,14049.5
1514082299,14053,14053.5
1514082306,14076,14077
1514082309,14071.5,14076.5
1514082314,14071.5,14072
1514082319,14100,14100.5
1514082329,14064,14076
1514082335,14066,14066.5
1514082349,14054.5,14055
1514082354,14038.5,14039
1514082359,14015,14024.5
1514082365,13999,13999.5
1514082369,13999.5,14000
1514082375,13999,14000
1514082379,13999,14021
1514082384,14020.5,14021.5
1514082389,14021,14021.5
1514082398,14005,14005.5
1514082400,14000,14000.5
1514082404,13976,13976.5
1514082409,13970,13970.5
1514082414,13958.5,13959
1514082425,13959.5,13960
1514082434,13961.5,13962.5
1514082439,13962,13962.5
1514082449,13985.5,13986
1514082457,14000,14007.5
1514082459,14011,14011.5
1514082464,14016,14016.5
1514082469,14019.5,14020
1514082474,14016,14016.5
1514082479,14017,14024.5
1514082485,14017,14017.5
1514082494,14028.5,14029.5
1514082499,14048,14048.5
1514082504,14052,14053
1514082509,14066,14066.5
1514082515,14073.5,14074
1514082519,14066,14069.5
1514082524,14056.5,14057
1514082529,14030,14031
1514082534,14030,14030.5
1514082539,14043,14043.5
1514082545,14043.5,14044.5
1514082549,14084.5,14085
1514082554,14080.5,14083.5
1514082559,14099,14099.5
1514082564,14099.5,14100
1514082576,14115.5,14116
1514082579,14115.5,14150
1514082584,14142.5,14146
1514082590,14145,14146
1514082594,14144,14145.5
1514082599,14136,14140.5
1514082609,14136.5,14140.5
1514082614,14140,14140.5
1514082629,14129.5,14135.5
1514082636,14135,14135.5
1514082644,14118,14118.5
1514082654,14105,14105.5
1514082659,14100.5,14101
1514082664,14110.5,14115
1514082669,14118.5,14119
1514082675,14144.5,14145
1514082680,14149,14149.5
1514082689,14169.5,14170
1514082699,14179.5,14180
1514082704,14185,14185.5
1514082709,14199.5,14200
1514082719,14214,14214.5
1514082729,14214,14226
1514082729,14214,14214.5
1514082734,14229.5,14230
1514082769,14210.5,14211
1514082774,14181.5,14182
1514082779,14163.5,14164
1514082785,14148,14148.5
1514082794,14174.5,14189
1514082799,14188,14188.5
1514082804,14196.5,14197
1514082809,14200.5,14201
1514082834,14207,14207.5
1514082839,14216,14216.5
1514082854,14200.5,14216
1514082859,14200,14200.5
1514082869,14215.5,14216
1514082877,14218.5,14219.5
1514082879,14219,14219.5
1514082889,14199,14199.5
1514082894,14219.5,14220
1514082909,14220,14220.5
1514082924,14212.5,14220
1514082929,14197.5,14198
1514082939,14219.5,14220
1514082944,14213.5,14214
1514082949,14202.5,14203
1514082954,14202,14202.5
1514082965,14200,14200.5
1514082979,14202.5,14203
1514082984,14195,14200
1514082989,14198,14198.5
1514082999,14167,14178
1514083004,14186.5,14187
1514083014,14174.5,14175
1514083019,14164,14164.5
1514083034,14148.5,14149
1514083039,14148,14148.5
1514083044,14123,14123.5
1514083049,14131,14131.5
1514083055,14137,14137.5
1514083059,14139.5,14140.5
1514083064,14139.5,14140
1514083069,14140,14140.5
1514083074,14141,14141.5
1514083084,14140.5,14141
1514083094,14129,14129.5
1514083100,14114.5,14118.5
1514083104,14088.5,14089
1514083110,14089,14093.5
1514083116,14096.5,14099
1514083119,14097,14099
1514083124,14098.5,14099
1514083134,14094,14094.5
1514083140,14061,14061.5
1514083145,14050,14060
1514083150,14053.5,14054
1514083154,14052.5,14053
1514083159,14045.5,14046
1514083165,14035.5,14036
1514083169,14045.5,14046
1514083176,14046,14047
1514083179,14036.5,14037
1514083189,14036.5,14039
1514083194,14039.5,14040
1514083205,14050,14054
1514083210,14067.5,14070.5
1514083214,14070.5,14085.5
1514083220,14085,14085.5
1514083225,14098,14098.5
1514083244,14073,14073.5
1514083249,14069.5,14072.5
1514083254,14061,14061.5
1514083259,14050,14050.5
1514083279,14051.5,14052
1514083290,14059.5,14069
1514083295,14077.5,14078
1514083314,14072.5,14073
1514083319,14076,14076.5
1514083324,14073,14073.5
1514083329,14084.5,14085
1514083334,14100,14100.5
1514083359,14086.5,14089
1514083365,14070,14072
1514083369,14070,14070.5
1514083419,14081.5,14082
1514083424,14068,14068.5
1514083434,14075,14075.5
1514083439,14070.5,14071
1514083444,14068,14070
1514083449,14066.5,14067
1514083454,14050.5,14051
1514083459,14033.5,14036
1514083464,14029.5,14030
1514083475,14022.5,14023
1514083484,14010,14010.5
1514083489,13993,13993.5
1514083504,13994,13996
1514083509,13995.5,13996
1514083514,13991,13991.5
1514083519,13989.5,13990
1514083536,13970,13970.5
1514083539,13940.5,13941
1514083544,13920,13924
1514083550,13925,13929
1514083554,13920,13920.5
1514083570,13930.5,13934
1514083575,13910,13934
1514083580,13880,13892.5
1514083584,13886.5,13889
1514083589,13888.5,13892.5
1514083598,13888.5,13889
1514083599,13888,13888.5
1514083604,13814.5,13868
1514083610,13806,13815
1514083614,13801,13801.5
1514083619,13800,13806.5
1514083625,13810,13813
1514083629,13815,13843
1514083634,13780,13794.5
1514083639,13809.5,13810
1514083644,13807,13808.5
1514083649,13800,13802.5
1514083656,13792.5,13800
1514083659,13792.5,13799.5
1514083665,13762.5,13772
1514083670,13760,13771.5
1514083674,13760.5,13771
1514083679,13760.5,13768
1514083684,13761.5,13762
1514083689,13770.5,13776.5
1514083694,13770.5,13773
1514083699,13769.5,13770
1514083709,13770,13770.5
1514083719,13710,13710.5
1514083724,13711,13727
1514083729,13730.5,13734
1514083734,13730,13742.5
1514083739,13730,13730.5
1514083779,13753.5,13754
1514083785,13744,13744.5
1514083790,13744,13755
1514083794,13744,13744.5
1514083799,13764.5,13786.5
1514083806,13786,13798
1514083809,13788,13796
1514083814,13791,13801
1514083819,13799.5,13801
1514083824,13798.5,13799.5
1514083829,13799.5,13801
1514083836,13799.5,13800
1514083844,13810,13810.5
1514083849,13832,13836
1514083854,13838.5,13839
1514083865,13833,13835
1514083869,13808,13812.5
1514083874,13806,13807.5
1514083879,13792,13800
1514083884,13782,13786.5
1514083889,13737.5,13750
1514083897,13726,13750
1514083899,13720,13722
1514083904,13720.5,13721
1514083909,13745.5,13750
1514083914,13748.5,13749
1514083919,13758,13763.5
1514083925,13757,13757.5
1514083929,13760,13760.5
1514083934,13750.5,13756.5
1514083940,13720,13720.5
1514083945,13715,13717.5
1514083949,13700,13712
1514083958,13650.5,13676
1514083959,13656,13676
1514083964,13646.5,13649.5
1514083970,13648,13649.5
1514083974,13649,13649.5
1514083979,13650.5,13658
1514083985,13654,13672
1514083989,13657.5,13658.5
1514083995,13681.5,13682
1514083999,13657.5,13658
1514084004,13682,13685.5
1514084009,13685,13689
1514084018,13658,13666
1514084019,13628,13633.5
1514084024,13629.5,13633
1514084030,13633,13633.5
1514084034,13611.5,13625.5
1514084039,13646,13646.5
1514084045,13639.5,13645
1514084049,13629.5,13637.5
1514084055,13637.5,13644.5
1514084059,13644,13644.5
1514084064,13654.5,13655
1514084077,13664,13664.5
1514084079,13674.5,13675
1514084084,13681,13683.5
1514084089,13695,13699
1514084094,13715,13715.5
1514084100,13726.5,13727
1514084105,13726.5,13728
1514084109,13730.5,13731
1514084114,13735.5,13745.5
1514084119,13735.5,13745
1514084125,13738.5,13745
1514084129,13733,13739
1514084135,13722,13725
1514084139,13702,13713
1514084144,13664,13681.5
1514084150,13669.5,13697
1514084154,13687,13689
1514084159,13705.5,13706.5
1514084164,13706,13706.5
1514084169,13727,13745.5
1514084174,13737.5,13738
1514084184,13725,13725.5
1514084189,13706,13706.5
1514084198,13702,13702.5
1514084200,13670,13670.5
1514084210,13664,13664.5
1514084214,13637,13637.5
1514084219,13655.5,13670.5
1514084226,13627.5,13630
1514084230,13610,13626.5
1514084234,13610,13610.5
1514084239,13607.5,13608
1514084244,13607.5,13629
1514084249,13606.5,13607
1514084264,13614.5,13616
1514084269,13641.5,13642
1514084274,13654,13654.5
1514084279,13674.5,13675
1514084286,13685.5,13686.5
1514084289,13685.5,13686
1514084294,13661.5,13662
1514084330,13640.5,13667
1514084334,13600.5,13602.5
1514084339,13601,13602.5
1514084345,13602,13602.5
1514084349,13585,13595
1514084354,13574.5,13575.5
1514084359,13555,13571
1514084364,13570.5,13571
1514084370,13579,13584
1514084377,13589,13600
1514084379,13589,13589.5
1514084384,13556,13577.5
1514084390,13556.5,13557
1514084394,13569,13570
1514084399,13587.5,13588
